demo_4_plot
…
# A tibble: 1 × 2
  `is.na(patientweight)`     n
  <lgl>                  <int>
1 FALSE                   1468

pe |> 
  count(hadm_id) |> 
  count(n, sort = TRUE)

Storing counts in `nn`, as `n` already present in input
ℹ Use `name = "new_name"` to pick a new name.

# A tibble: 33 × 2
       n    nn
   <int> <int>
 1     3    14
 2     5    11
 3     4    10
 4     2     9
 5     9     8
 6    10     7
 7    14     7
 8    12     6
 9    15     6
10     6     5
# ℹ 23 more rows
…
